^D:\GITS\PROJECT\VS\HOMEWORK_16\DEBUG\HOMEWORK_16.OBJ
D:\GITS\PROJECT\VS\HOMEWORK_16\DEBUG\HOMEWORK_16.EXE
D:\GITS\PROJECT\VS\HOMEWORK_16\DEBUG\HOMEWORK_16.ILK
D:\GITS\PROJECT\VS\HOMEWORK_16\DEBUG\HOMEWORK_16.PDB
