^D:\GITS\PROJECT\VS\TEST\TEST\TEST.CPP
C:\WINDOWS\GLOBALIZATION\SORTING\SORTDEFAULT.NLS
D:\VSTUDIO\VC\TOOLS\MSVC\14.28.29910\BIN\HOSTX86\X86\1049\CLUI.DLL
C:\WINDOWS\SYSTEM32\TZRES.DLL
D:\VSTUDIO\VC\TOOLS\MSVC\14.28.29910\INCLUDE\IOSTREAM
D:\VSTUDIO\VC\TOOLS\MSVC\14.28.29910\INCLUDE\YVALS_CORE.H
D:\VSTUDIO\VC\TOOLS\MSVC\14.28.29910\INCLUDE\VCRUNTIME.H
D:\VSTUDIO\VC\TOOLS\MSVC\14.28.29910\INCLUDE\SAL.H
D:\VSTUDIO\VC\TOOLS\MSVC\14.28.29910\INCLUDE\CONCURRENCYSAL.H
D:\VSTUDIO\VC\TOOLS\MSVC\14.28.29910\INCLUDE\VADEFS.H
D:\VSTUDIO\VC\TOOLS\MSVC\14.28.29910\INCLUDE\XKEYCHECK.H
D:\VSTUDIO\VC\TOOLS\MSVC\14.28.29910\INCLUDE\ISTREAM
D:\VSTUDIO\VC\TOOLS\MSVC\14.28.29910\INCLUDE\OSTREAM
D:\VSTUDIO\VC\TOOLS\MSVC\14.28.29910\INCLUDE\IOS
D:\VSTUDIO\VC\TOOLS\MSVC\14.28.29910\INCLUDE\XLOCNUM
D:\VSTUDIO\VC\TOOLS\MSVC\14.28.29910\INCLUDE\CLIMITS
D:\VSTUDIO\VC\TOOLS\MSVC\14.28.29910\INCLUDE\LIMITS.H
D:\VSTUDIO\VC\TOOLS\MSVC\14.28.29910\INCLUDE\CMATH
D:\VSTUDIO\VC\TOOLS\MSVC\14.28.29910\INCLUDE\YVALS.H
C:\PROGRAM FILES (X86)\WINDOWS KITS\10\INCLUDE\10.0.18362.0\UCRT\CRTDBG.H
C:\PROGRAM FILES (X86)\WINDOWS KITS\10\INCLUDE\10.0.18362.0\UCRT\CORECRT.H
D:\VSTUDIO\VC\TOOLS\MSVC\14.28.29910\INCLUDE\VCRUNTIME_NEW_DEBUG.H
D:\VSTUDIO\VC\TOOLS\MSVC\14.28.29910\INCLUDE\VCRUNTIME_NEW.H
D:\VSTUDIO\VC\TOOLS\MSVC\14.28.29910\INCLUDE\CRTDEFS.H
D:\VSTUDIO\VC\TOOLS\MSVC\14.28.29910\INCLUDE\USE_ANSI.H
D:\VSTUDIO\VC\TOOLS\MSVC\14.28.29910\INCLUDE\CSTDLIB
C:\PROGRAM FILES (X86)\WINDOWS KITS\10\INCLUDE\10.0.18362.0\UCRT\MATH.H
C:\PROGRAM FILES (X86)\WINDOWS KITS\10\INCLUDE\10.0.18362.0\UCRT\CORECRT_MATH.H
C:\PROGRAM FILES (X86)\WINDOWS KITS\10\INCLUDE\10.0.18362.0\UCRT\STDLIB.H
C:\PROGRAM FILES (X86)\WINDOWS KITS\10\INCLUDE\10.0.18362.0\UCRT\CORECRT_MALLOC.H
C:\PROGRAM FILES (X86)\WINDOWS KITS\10\INCLUDE\10.0.18362.0\UCRT\CORECRT_SEARCH.H
C:\PROGRAM FILES (X86)\WINDOWS KITS\10\INCLUDE\10.0.18362.0\UCRT\STDDEF.H
C:\PROGRAM FILES (X86)\WINDOWS KITS\10\INCLUDE\10.0.18362.0\UCRT\CORECRT_WSTDLIB.H
D:\VSTUDIO\VC\TOOLS\MSVC\14.28.29910\INCLUDE\XTR1COMMON
D:\VSTUDIO\VC\TOOLS\MSVC\14.28.29910\INCLUDE\INTRIN0.H
D:\VSTUDIO\VC\TOOLS\MSVC\14.28.29910\INCLUDE\CSTDIO
C:\PROGRAM FILES (X86)\WINDOWS KITS\10\INCLUDE\10.0.18362.0\UCRT\STDIO.H
C:\PROGRAM FILES (X86)\WINDOWS KITS\10\INCLUDE\10.0.18362.0\UCRT\CORECRT_WSTDIO.H
C:\PROGRAM FILES (X86)\WINDOWS KITS\10\INCLUDE\10.0.18362.0\UCRT\CORECRT_STDIO_CONFIG.H
D:\VSTUDIO\VC\TOOLS\MSVC\14.28.29910\INCLUDE\ITERATOR
D:\VSTUDIO\VC\TOOLS\MSVC\14.28.29910\INCLUDE\IOSFWD
D:\VSTUDIO\VC\TOOLS\MSVC\14.28.29910\INCLUDE\CSTRING
C:\PROGRAM FILES (X86)\WINDOWS KITS\10\INCLUDE\10.0.18362.0\UCRT\STRING.H
C:\PROGRAM FILES (X86)\WINDOWS KITS\10\INCLUDE\10.0.18362.0\UCRT\CORECRT_MEMORY.H
C:\PROGRAM FILES (X86)\WINDOWS KITS\10\INCLUDE\10.0.18362.0\UCRT\CORECRT_MEMCPY_S.H
C:\PROGRAM FILES (X86)\WINDOWS KITS\10\INCLUDE\10.0.18362.0\UCRT\ERRNO.H
D:\VSTUDIO\VC\TOOLS\MSVC\14.28.29910\INCLUDE\VCRUNTIME_STRING.H
C:\PROGRAM FILES (X86)\WINDOWS KITS\10\INCLUDE\10.0.18362.0\UCRT\CORECRT_WSTRING.H
D:\VSTUDIO\VC\TOOLS\MSVC\14.28.29910\INCLUDE\CWCHAR
C:\PROGRAM FILES (X86)\WINDOWS KITS\10\INCLUDE\10.0.18362.0\UCRT\WCHAR.H
C:\PROGRAM FILES (X86)\WINDOWS KITS\10\INCLUDE\10.0.18362.0\UCRT\CORECRT_WCONIO.H
C:\PROGRAM FILES (X86)\WINDOWS KITS\10\INCLUDE\10.0.18362.0\UCRT\CORECRT_WCTYPE.H
C:\PROGRAM FILES (X86)\WINDOWS KITS\10\INCLUDE\10.0.18362.0\UCRT\CORECRT_WDIRECT.H
C:\PROGRAM FILES (X86)\WINDOWS KITS\10\INCLUDE\10.0.18362.0\UCRT\CORECRT_WIO.H
C:\PROGRAM FILES (X86)\WINDOWS KITS\10\INCLUDE\10.0.18362.0\UCRT\CORECRT_SHARE.H
C:\PROGRAM FILES (X86)\WINDOWS KITS\10\INCLUDE\10.0.18362.0\UCRT\CORECRT_WPROCESS.H
C:\PROGRAM FILES (X86)\WINDOWS KITS\10\INCLUDE\10.0.18362.0\UCRT\CORECRT_WTIME.H
C:\PROGRAM FILES (X86)\WINDOWS KITS\10\INCLUDE\10.0.18362.0\UCRT\SYS\STAT.H
C:\PROGRAM FILES (X86)\WINDOWS KITS\10\INCLUDE\10.0.18362.0\UCRT\SYS\TYPES.H
D:\VSTUDIO\VC\TOOLS\MSVC\14.28.29910\INCLUDE\XSTDDEF
D:\VSTUDIO\VC\TOOLS\MSVC\14.28.29910\INCLUDE\CSTDDEF
D:\VSTUDIO\VC\TOOLS\MSVC\14.28.29910\INCLUDE\INITIALIZER_LIST
D:\VSTUDIO\VC\TOOLS\MSVC\14.28.29910\INCLUDE\XUTILITY
D:\VSTUDIO\VC\TOOLS\MSVC\14.28.29910\INCLUDE\UTILITY
D:\VSTUDIO\VC\TOOLS\MSVC\14.28.29910\INCLUDE\TYPE_TRAITS
D:\VSTUDIO\VC\TOOLS\MSVC\14.28.29910\INCLUDE\CSTDINT
D:\VSTUDIO\VC\TOOLS\MSVC\14.28.29910\INCLUDE\STDINT.H
D:\VSTUDIO\VC\TOOLS\MSVC\14.28.29910\INCLUDE\STREAMBUF
D:\VSTUDIO\VC\TOOLS\MSVC\14.28.29910\INCLUDE\XIOSBASE
C:\PROGRAM FILES (X86)\WINDOWS KITS\10\INCLUDE\10.0.18362.0\UCRT\SHARE.H
D:\VSTUDIO\VC\TOOLS\MSVC\14.28.29910\INCLUDE\SYSTEM_ERROR
D:\VSTUDIO\VC\TOOLS\MSVC\14.28.29910\INCLUDE\__MSVC_SYSTEM_ERROR_ABI.HPP
D:\VSTUDIO\VC\TOOLS\MSVC\14.28.29910\INCLUDE\CERRNO
D:\VSTUDIO\VC\TOOLS\MSVC\14.28.29910\INCLUDE\STDEXCEPT
D:\VSTUDIO\VC\TOOLS\MSVC\14.28.29910\INCLUDE\EXCEPTION
C:\PROGRAM FILES (X86)\WINDOWS KITS\10\INCLUDE\10.0.18362.0\UCRT\MALLOC.H
D:\VSTUDIO\VC\TOOLS\MSVC\14.28.29910\INCLUDE\VCRUNTIME_EXCEPTION.H
D:\VSTUDIO\VC\TOOLS\MSVC\14.28.29910\INCLUDE\EH.H
C:\PROGRAM FILES (X86)\WINDOWS KITS\10\INCLUDE\10.0.18362.0\UCRT\CORECRT_TERMINATE.H
D:\VSTUDIO\VC\TOOLS\MSVC\14.28.29910\INCLUDE\XSTRING
D:\VSTUDIO\VC\TOOLS\MSVC\14.28.29910\INCLUDE\XMEMORY
D:\VSTUDIO\VC\TOOLS\MSVC\14.28.29910\INCLUDE\LIMITS
D:\VSTUDIO\VC\TOOLS\MSVC\14.28.29910\INCLUDE\CFLOAT
C:\PROGRAM FILES (X86)\WINDOWS KITS\10\INCLUDE\10.0.18362.0\UCRT\FLOAT.H
D:\VSTUDIO\VC\TOOLS\MSVC\14.28.29910\INCLUDE\ISA_AVAILABILITY.H
D:\VSTUDIO\VC\TOOLS\MSVC\14.28.29910\INCLUDE\NEW
D:\VSTUDIO\VC\TOOLS\MSVC\14.28.29910\INCLUDE\XATOMIC.H
D:\VSTUDIO\VC\TOOLS\MSVC\14.28.29910\INCLUDE\XCALL_ONCE.H
D:\VSTUDIO\VC\TOOLS\MSVC\14.28.29910\INCLUDE\XERRC.H
D:\VSTUDIO\VC\TOOLS\MSVC\14.28.29910\INCLUDE\ATOMIC
D:\VSTUDIO\VC\TOOLS\MSVC\14.28.29910\INCLUDE\XTHREADS.H
D:\VSTUDIO\VC\TOOLS\MSVC\14.28.29910\INCLUDE\XTIMEC.H
D:\VSTUDIO\VC\TOOLS\MSVC\14.28.29910\INCLUDE\CTIME
C:\PROGRAM FILES (X86)\WINDOWS KITS\10\INCLUDE\10.0.18362.0\UCRT\TIME.H
D:\VSTUDIO\VC\TOOLS\MSVC\14.28.29910\INCLUDE\XLOCALE
D:\VSTUDIO\VC\TOOLS\MSVC\14.28.29910\INCLUDE\MEMORY
D:\VSTUDIO\VC\TOOLS\MSVC\14.28.29910\INCLUDE\TYPEINFO
D:\VSTUDIO\VC\TOOLS\MSVC\14.28.29910\INCLUDE\VCRUNTIME_TYPEINFO.H
D:\VSTUDIO\VC\TOOLS\MSVC\14.28.29910\INCLUDE\XFACET
D:\VSTUDIO\VC\TOOLS\MSVC\14.28.29910\INCLUDE\XLOCINFO
D:\VSTUDIO\VC\TOOLS\MSVC\14.28.29910\INCLUDE\XLOCINFO.H
D:\VSTUDIO\VC\TOOLS\MSVC\14.28.29910\INCLUDE\CCTYPE
C:\PROGRAM FILES (X86)\WINDOWS KITS\10\INCLUDE\10.0.18362.0\UCRT\CTYPE.H
D:\VSTUDIO\VC\TOOLS\MSVC\14.28.29910\INCLUDE\CLOCALE
C:\PROGRAM FILES (X86)\WINDOWS KITS\10\INCLUDE\10.0.18362.0\UCRT\LOCALE.H
