^C:\USERS\USER\SOURCE\REPOS\HOMEWORK_18\DEBUG\HOMEWORK_18.OBJ
/OUT:"C:\USERS\USER\SOURCE\REPOS\HOMEWORK_18\DEBUG\HOMEWORK_18.EXE" /INCREMENTAL /NOLOGO KERNEL32.LIB USER32.LIB GDI32.LIB WINSPOOL.LIB COMDLG32.LIB ADVAPI32.LIB SHELL32.LIB OLE32.LIB OLEAUT32.LIB UUID.LIB ODBC32.LIB ODBCCP32.LIB /MANIFEST /MANIFESTUAC:"level='asInvoker' uiAccess='false'" /manifest:embed /DEBUG:FASTLINK /PDB:"C:\USERS\USER\SOURCE\REPOS\HOMEWORK_18\DEBUG\HOMEWORK_18.PDB" /SUBSYSTEM:CONSOLE /TLBID:1 /DYNAMICBASE /NXCOMPAT /IMPLIB:"C:\USERS\USER\SOURCE\REPOS\HOMEWORK_18\DEBUG\HOMEWORK_18.LIB" /MACHINE:X86 DEBUG\HOMEWORK_18.OBJ
^D:\GITS\PROJECT\VS\HOMEWORK_18\DEBUG\HOMEWORK_18.OBJ
/OUT:"D:\GITS\PROJECT\VS\HOMEWORK_18\DEBUG\HOMEWORK_18.EXE" /INCREMENTAL /NOLOGO KERNEL32.LIB USER32.LIB GDI32.LIB WINSPOOL.LIB COMDLG32.LIB ADVAPI32.LIB SHELL32.LIB OLE32.LIB OLEAUT32.LIB UUID.LIB ODBC32.LIB ODBCCP32.LIB /MANIFEST /MANIFESTUAC:"level='asInvoker' uiAccess='false'" /manifest:embed /DEBUG:FASTLINK /PDB:"D:\GITS\PROJECT\VS\HOMEWORK_18\DEBUG\HOMEWORK_18.PDB" /SUBSYSTEM:CONSOLE /TLBID:1 /DYNAMICBASE /NXCOMPAT /IMPLIB:"D:\GITS\PROJECT\VS\HOMEWORK_18\DEBUG\HOMEWORK_18.LIB" /MACHINE:X86 DEBUG\HOMEWORK_18.OBJ
